    4
 
Lu   -0.1027466346   0.0000000000   0.0000000000
F     0.3153699354   1.9200009200   0.0000000000
F     0.3153699354  -0.9600004600   1.6627695700
F     0.3153699354  -0.9600004600  -1.6627695700
