Level     Frequency     f             Rate           Lifetime
------------------------------------------------------------------------
    2    14.7249228123  0.00019318    0.13458E+10    0.74305E-09    0u+
    6    14.7354731379  0.01012800    0.70658E+11    0.14153E-10    1u 
    7    14.7354731379  0.01012800    0.70658E+11    0.14153E-10    1u 
   14    14.7841864012  0.09369466    0.65799E+12    0.15198E-11    1u 
   15    14.7841864012  0.09369466    0.65799E+12    0.15198E-11    1u 
   22    15.1211545881  0.00000251    0.18439E+08    0.54232E-07    1u 
   23    15.1211545881  0.00000251    0.18439E+08    0.54232E-07    1u 
   25    15.1494320202  0.00006483    0.47805E+09    0.20918E-08    0u+
------------------------------------------------------------------------
Sum of oscillator strenghts:      0.20791
