Bi atom - DZ basis
1 15 1
1s
2s
2p
3s
3p
3d
4s
4p
4d
4f
5s
5p
5d
6s
6p 3
ANG 1 7
-1
MCP 1 2
MCDF 24
2 0 3 0 14
83 209.0
NUC 3
GAUSS 4
1S  24
2P- 20
2P  20 2P- 1 20
3D- 14
3D  14 3D- 1 14
4F-  8
4F   8 4F- 1  8
 5.8022684E+07
 1.4819799E+07
 4.7223874E+06
 1.6321833E+06
 6.0232740E+05
 2.3262600E+05
 9.3657019E+04
 3.9098920E+04
 1.6878840E+04
 7.5127674E+03
 3.4393803E+03
 1.6158149E+03
 7.7585154E+02
 3.6612190E+02
 1.8440048E+02
 9.5065117E+01
 4.6466268E+01
 2.4477290E+01
 1.1190161E+01
 5.7978488E+00
 2.1587077E+00
 1.0422614E+00
 2.6590866E-01
 1.0073440E-01
 1.5267851E+07
 2.6863694E+06
 6.0456060E+05
 1.5848335E+05
 4.6785870E+04
 1.5325077E+04
 5.5345524E+03
 2.1842431E+03
 9.2942393E+02
 4.1932007E+02
 1.9785121E+02
 9.5696786E+01
 4.7435630E+01
 2.3929631E+01
 1.1351604E+01
 5.5346123E+00
 2.2410872E+00
 9.5317500E-01
 2.4829310E-01
 7.7915822E-02
 1.1456342E+04
 2.9347912E+03
 1.0364305E+03
 4.3032355E+02
 1.9654041E+02
 9.5235753E+01
 4.7867448E+01
 2.4364758E+01
 1.2223922E+01
 6.0607197E+00
 2.8412869E+00
 1.2973356E+00
 5.5200808E-01
 2.0223207E-01
 5.5102305E+02
 1.8692436E+02
 7.8801541E+01
 3.6351986E+01
 1.7527887E+01
 8.4583618E+00
 3.9675228E+00
 1.6865442E+00
AL
END
