**DIRAC
.PROPERTIES
**GENERAL
.RKBIMP
**INTEGRALS
*READIN
.UNCONT
**HAMILTONIAN
.URKBAL
.DFTAUTO
 PBE0
**GRID
.ATSIZE
.ULTRAFINE
**WAVE FUN
.SCF
*SCF
.CLOSED SHELL
 170
**PROPERTIES
.PRINT
 2
.SHIELDING
*NMR
.LONDON
**END OF
