  The acronyms for each Q correction below  refer to: 
  Edc:  Davidson correction              [Eq. (34)]
  Erdc: renormalized Davidson correction [Eq. (36)]
  Epc`: modified Pople correction        [Eq. (39)]
  Emc : Meissner correction              [Eq. (41)]


  Q corrections for state   1 with c0^2 according to Eq. (43)
  ------------------------------------------------------------------------------------------------------------------------
         model              Edc             Erdc             Epc`              Emc        Emc (Nact - 2e)
   CI+Q energy           -76.221619       -76.221689       -76.221187       -76.220742       -76.220525
  ------------------------------------------------------------------------------------------------------------------------

  Q corrections for state   1 with c0^2 according to Eq. (44)
  ------------------------------------------------------------------------------------------------------------------------
         model              Edc             Erdc             Epc`              Emc        Emc (Nact - 2e)
   CI+Q energy           -76.221645       -76.221716       -76.221209       -76.220758       -76.220539
  ------------------------------------------------------------------------------------------------------------------------

